{

  "intents": [
    {
      "tag": "greeting",
      "patterns": ["Hi", "Hey", "Ho", "What's up", "How are you", "Is anyone there?", "Hello", "Good day"],
      "responses": ["Hello, thanks for visiting", "Good to see you again", "Hi there, how can I help?"],
      "context_set": ""
    },
    {
      "tag": "goodbye",
      "patterns": ["Bye", "Bye bye", "Ciao","See you later", "Goodbye"],
      "responses": ["Happy to talk to you later!","Thanks for showing up!", "Bye! Looking forward to seeing you again soon!"]
    },
    {
      "tag": "thanks",
      "patterns": ["Thanks", "Thank you", "That's helpful", "Perfect, thank you so much"],
      "responses": ["Happy to help!", "Any time!", "My pleasure"]
    },
    {
      "tag": "hours",
      "patterns": ["What hours are you open?", "What are your hours?", "When are you open?", "Opening times?" ],
      "responses": ["We're open every day 9am-9pm", "Our hours are 9am-9pm every day"]
    },
    {
      "tag": "mopeds",
      "patterns": ["Which mopeds do you have?", "What kinds of mopeds are there?", "What do you rent?" ],
      "responses": ["We rent Yamaha, Piaggio and Vespa mopeds", "We have Piaggio, Vespa and Yamaha mopeds"]
    },
    {
      "tag": "payments",
      "patterns": ["Do you take credit cards?", "Do you accept Mastercard?", "Are you cash only?", "Which credit cards do you accept" ],
      "responses": ["We accept VISA, Mastercard and AMEX", "We accept most major credit cards"]
    },
    {
      "tag": "opentoday",
      "patterns": ["Are you open today?", "When do you open today?", "At what times are you open today?", "What are you opening times today?"],
      "responses": ["We're open every day from 9am-9pm", "Our hours are 9am-9pm every day"]
    },
    {
      "tag": "rental",
      "patterns": ["Can we rent a moped?", "I'd like to rent a moped", "How does this work?" ],
      "responses": ["Are you looking to rent today or later this week?"],
      "context_set": "rentalday"
    },
    {
      "tag": "today",
      "patterns": ["today", "rent today", "I want to rent today"],
      "responses": ["For rentals today please call 1-800-MYMOPED", "Same-day rentals please call 1-800-MYMOPED"],
      "context_filter": "rentalday"
    },
    {
      "tag": "morningslot",
      "patterns": ["morningslot", "please give me a morning slot","can you get me a morning slot?", "I'd like to rent in the morning", "I need it in the morning", "before noon please", "early please", "I'd like to book a morningslot"],
      "responses": ["Of course we can arrange you a morning slot.", "Morning slots are available"]
    },
    {
      "tag": "afternoonslot",
      "patterns": ["afternoon", "give me a morning slot", "afternoonslot", "afternoon please", "later in the day", "I'd like to book an afternoon slot"],
      "responses": ["Of course we can arrange you an afternoon slot.", "Afternoon slots are available"]
    },
    {
      "tag": "humanhandover",
      "patterns": ["humanhandover", "i'd like to speak to a human", "get me a real agent", "this bot sucks", "please get me an agent on the line"],
      "responses": ["I am now handing over to one of our customer agents, have a nice day!", "The bot has been deactivated. You are now chatting with a bone and flesh customer agent"]
    }
   ]
}
